Insights Workshop
…
count: false
 
# Investigate
.panel1-intro2-auto[

```r
# summary stats
*data
```
]
 
.panel2-intro2-auto[

```
# A tibble: 1,846 × 3
   category     x     y
   <chr>    <dbl> <dbl>
 1 A         55.4  97.2
 2 A         51.5  96.0
 3 A         46.2  94.5
 4 A         42.8  91.4
 5 A         40.8  88.3
 6 A         38.7  84.9
 7 A         35.6  79.9
 8 A         33.1  77.6
 9 A         29.0  74.5
10 A         26.2  71.4
# … with 1,836 more rows
```
…
.panel2-intro2-auto[

```
# A tibble: 1 × 4
  x_Mean  x_SD y_Mean  y_SD
   <dbl> <dbl>  <dbl> <dbl>
1   54.3  16.7   47.8  26.8
```

```
# A tibble: 1,846 × 3
   category     x     y
   <chr>    <dbl> <dbl>
 1 A         55.4  97.2
 2 A         51.5  96.0
 3 A         46.2  94.5
 4 A         42.8  91.4
 5 A         40.8  88.3
 6 A         38.7  84.9
 7 A         35.6  79.9
 8 A         33.1  77.6
 9 A         29.0  74.5
10 A         26.2  71.4
# … with 1,836 more rows
```
…
.panel2-intro2-auto[

```
# A tibble: 1 × 4
  x_Mean  x_SD y_Mean  y_SD
   <dbl> <dbl>  <dbl> <dbl>
1   54.3  16.7   47.8  26.8
```

```
# A tibble: 1,846 × 3
# Groups:   category [12]
   category     x     y
   <chr>    <dbl> <dbl>
 1 A         55.4  97.2
 2 A         51.5  96.0
 3 A         46.2  94.5
 4 A         42.8  91.4
 5 A         40.8  88.3
 6 A         38.7  84.9
 7 A         35.6  79.9
 8 A         33.1  77.6
 9 A         29.0  74.5
10 A         26.2  71.4
# … with 1,836 more rows
```
…
